Test set: corrected_lpc_v3_forward
Locutor original;Perfil testado;04;05;06;07;08;09;10;11;12;13;14;15;16;17;18;19;20;21;22;23;24;Média
FA;FA;0,7799999999999999;-1,0;0,89;0,9;0,82;0,7600000000000001;0,75;0,7799999999999999;0,83;0,83;0,63;0,85;0,77;0,82;0,82;0,77;0,82;0,82;0,79;0,8000000000000002;0,83;0,8029999999999999
FA;FG;0,0;0,0;0,0;0,0;0,0;0,0;0,0;0,0;0,0;0,0;0,0;0,0;0,0;0,0;0,0;0,0;0,0;0,0;0,0;0,0;0,0;0,0
FA;MK;0,0;0,0;0,0;0,0;0,0;0,0;0,0;0,0;0,0;0,0;0,0;0,0;0,0;0,0;0,0;0,0;0,0;0,0;0,0;0,0;0,0;0,0
FA;ML;0,0;0,0;0,0;0,0;0,0;0,0;0,0;0,0;0,0;0,0;0,0;0,0;0,0;0,0;0,0;0,0;0,0;0,0;0,0;0,0;0,0;0,0
FG;FA;0,0;-1,0;0,0;0,0;0,0;0,0;0,0;0,0;0,0;0,0;0,0;0,0;0,0;0,0;0,0;0,0;0,0;0,0;0,0;0,0;0,0;0,0
FG;FG;0,81;0,86;0,87;0,86;0,82;0,8466666666666667;0,82;0,88;0,91;0,9;0,87;0,87;0,9;0,86;0,84;0,8466666666666667;0,9;0,87;0,86;0,89;0,86;0,8639682539682538
FG;MK;0,0;0,0;0,0;0,0;0,0;0,0;0,0;0,0;0,0;0,0;0,0;0,0;0,0;0,0;0,0;0,0;0,0;0,0;0,0;0,0;0,0;0,0
FG;ML;0,0;0,0;0,0;0,0;0,0;0,0;0,0;0,0;0,0;0,0;0,0;0,0;0,0;0,0;0,0;0,0;0,0;0,0;0,0;0,0;0,0;0,0
MK;FA;0,0;-1,0;0,0;0,0;0,0;0,0;0,0;0,0;0,0;0,0;0,0;0,0;0,0;0,0;0,0;0,0;0,0;0,0;0,0;0,0;0,0;0,0
MK;FG;0,0;0,0;0,0;0,0;0,0;0,0;0,0;0,0;0,0;0,0;0,0;0,0;0,0;0,0;0,0;0,0;0,0;0,0;0,0;0,0;0,0;0,0
MK;MK;0,91;0,86;0,89;0,86;0,9499999999999998;0,9499999999999998;0,85;0,92;0,93;0,92;0,88;0,91;0,85;0,91;0,94;0,81;0,87;0,84;0,94;0,88;0,92;0,8947619047619049
MK;ML;0,0;0,0;0,0;0,0;0,0;0,0;0,0;0,0;0,0;0,0;0,0;0,0;0,0;0,0;0,0;0,0;0,0;0,0;0,0;0,0;0,0;0,0
ML;FA;0,0;-1,0;0,0;0,0;0,0;0,0;0,0;0,0;0,0;0,0;0,0;0,0;0,0;0,0;0,0;0,0;0,0;0,0;0,0;0,0;0,0;0,0
ML;FG;0,0;0,0;0,0;0,0;0,0;0,0;0,0;0,0;0,0;0,0;0,0;0,0;0,0;0,0;0,0;0,0;0,0;0,0;0,0;0,0;0,0;0,0
ML;MK;0,0;0,0;0,0;0,0;0,0;0,0;0,0;0,0;0,0;0,0;0,0;0,0;0,0;0,0;0,0;0,0;0,0;0,0;0,0;0,0;0,0;0,0
ML;ML;0,81;0,9;0,93;0,89;0,9;0,89;0,94;0,87;0,94;0,93;0,85;0,84;0,89;0,8633333333333333;0,89;0,84;0,92;0,94;0,93;0,94;0,7600000000000001;0,8887301587301589
