Audio file;01;02;03;04;05;06;07;08;09;10;11;12;13;14;15;16;17;18;19;20;21;22;23;24;Media
FA;0,1794871794871795;0,273972602739726;0,09876543209876543;0,17647058823529413;0,1839080459770115;0,18421052631578946;0,44155844155844154;0,10843373493975904;0,16666666666666666;0,25;0,09375;0,08108108108108109;0,1044776119402985;0,14864864864864866;0,36;0,10294117647058823;0,13513513513513514;0,20833333333333334;0,3;0,19480519480519481;0,12162162162162163;0,34177215189873417;0,1780821917808219;0,4594594594594595;0,2038992010080646
FG;0,23076923076923078;0,3333333333333333;0,43243243243243246;0,7241379310344828;0,2894736842105263;0,4155844155844156;0,36363636363636365;0,30985915492957744;0,03225806451612903;0,3103448275862069;0,4262295081967213;0,3870967741935484;0,4927536231884058;0,5932203389830508;0,28169014084507044;0,36046511627906974;0,19718309859154928;0,23943661971830985;0,547945205479452;0,4155844155844156;0,45901639344262296;0,4603174603174603;0,4025974025974026;0,4626865671641791;0,38200217094224814
MK;0,3563218390804598;0,44871794871794873;0,4883720930232558;0,3246753246753247;0,1927710843373494;0,38636363636363635;0,5316455696202531;0,5131578947368421;0,2236842105263158;0,2328767123287671;0,10638297872340426;0,2727272727272727;0,2318840579710145;0,189873417721519;0,19047619047619047;0,3684210526315789;0,1590909090909091;0,3181818181818182;0,2361111111111111;0,313953488372093;0,03529411764705882;0,48717948717948717;0,14814814814814814;0,25;0,29192959847465655
ML;0,42045454545454547;0,43956043956043955;0,27380952380952384;0,3611111111111111;0,25;0,36231884057971014;0,20253164556962025;0,34782608695652173;0,30985915492957744;0,21794871794871795;0,3150684931506849;0,44;0,4024390243902439;0,37037037037037035;0,25;0,3717948717948718;0,48717948717948717;0,32941176470588235;0,4444444444444444;0,11392405063291139;0,2911392405063291;0,1917808219178082;0,36363636363636365;0,4189189189189189;0,33231366323200345
